# gpt2 get prob work

    Code
      cont
    Output
      # A tidytable: 50,257 x 2
         token       lp
         <chr>    <dbl>
       1 Ġtree   -0.281
       2 Ġtrees  -3.60 
       3 Ġapple  -4.29 
       4 Ġtable  -4.50 
       5 Ġhead   -4.83 
       6 Ġmark   -4.86 
       7 Ġcake   -4.91 
       8 Ġground -5.08 
       9 Ġtruth  -5.31 
      10 Ġtop    -5.36 
      # ... with 50,247 more rows
…
