Generate next tokens after a context and their predictability using a causal transformer model — causal_next_tokens_pred_tbl • pangoling
…
    See also

    Other causal model functions:
causal_pred_mats(),
causal_words_pred()

    Examples

causal_next_tokens_pred_tbl(
  context = "The apple doesn't fall far from the",
  model = "gpt2"
)
#> Processing using causal model 'gpt2/' ...
#> # A tidytable: 50,257 × 2
#>    token     pred
#>    <chr>    <dbl>
#>  1 Ġtree   -0.281
#>  2 Ġtrees  -3.60 
#>  3 Ġapple  -4.29 
#>  4 Ġtable  -4.50 
#>  5 Ġhead   -4.83 
#>  6 Ġmark   -4.86 
#>  7 Ġcake   -4.91 
#>  8 Ġground -5.08 
#>  9 Ġtruth  -5.31 
#> 10 Ġtop    -5.36 
#> # ℹ 50,247 more rows
…
