Get the possible tokens and their log probabilities for each mask in a sentence — masked_tokens_pred_tbl • pangoling
…
    See also

    Other masked model functions:
masked_targets_pred()

    Examples

masked_tokens_pred_tbl("The [MASK] doesn't fall far from the tree.",
  model = "bert-base-uncased"
)
#> Processing using masked model 'bert-base-uncased/' ...
#> # A tidytable: 30,522 × 4
#>    masked_sentence                            token   pred mask_n
#>    <chr>                                      <chr>  <dbl>  <int>
#>  1 The [MASK] doesn't fall far from the tree. snow   -3.12      1
#>  2 The [MASK] doesn't fall far from the tree. rock   -3.45      1
#>  3 The [MASK] doesn't fall far from the tree. stone  -3.77      1
#>  4 The [MASK] doesn't fall far from the tree. girl   -3.85      1
#>  5 The [MASK] doesn't fall far from the tree. sun    -3.99      1
#>  6 The [MASK] doesn't fall far from the tree. tree   -3.99      1
#>  7 The [MASK] doesn't fall far from the tree. branch -4.09      1
#>  8 The [MASK] doesn't fall far from the tree. body   -4.12      1
#>  9 The [MASK] doesn't fall far from the tree. light  -4.43      1
#> 10 The [MASK] doesn't fall far from the tree. water  -4.44      1
#> # ℹ 30,512 more rows
…
