Worked-out example: Surprisal from a causal (GPT) model as a cognitive processing bottleneck in reading • pangoling
…
library(pangoling)
library(tidytable) # Lightweight and faster alternative to dplyr
library(tictoc)  # Report the time that a piece of code takes
library(brms) # Bayesian regression models in Stan
# Use all the cores needed available for brms:
options(mc.cores = parallel::detectCores()) 

The dataset df_jaeger14 from Jäger et al. (2015) contains Chinese sentences
presented word-by-word to participants. Each word has an associated
reaction time (RT). (The original research question and the experimental
conditions don’t matter to us.)

data("df_jaeger14")
df_jaeger14
#> # A tidytable: 8,624 × 14
#>    subject  item cond  word  wordn    rt region question accuracy correct_answer
#>    <chr>   <int> <chr> <chr> <int> <int> <fct>  <chr>       <int>          <int>
#>  1 1m1         1 a     那個      1   360 Det+CL 那個顧客聽說過…        1              1
#>  2 1m1         1 a     昨晚      2   359 Adv    那個顧客聽說過…        1              1
#>  3 1m1         1 a     揍了服務…     3   344 VN     那個顧客聽說過…        1              1
#>  4 1m1         1 a     一頓      4   313 FreqP  那個顧客聽說過…        1              1
#>  5 1m1         1 a     的        5   297 DE     那個顧客聽說過…        1              1
#>  6 1m1         1 a     顧客      6   312 head   那個顧客聽說過…        1              1
#>  7 1m1         1 a     聽說過……     7   297 hd1    那個顧客聽說過…        1              1
#>  8 1m1         1 a     老闆      8   281 hd2    那個顧客聽說過…        1              1
#>  9 1m1         1 a     並且      9   297 hd3    那個顧客聽說過…        1              1
#> 10 1m1         1 a     記得     10   313 hd4    那個顧客聽說過…        1              1
#> # ℹ 8,614 more rows
#> # ℹ 4 more variables: question_type <int>, experiment <chr>, list <int>,
#> #   sentence <chr>

To avoid redundant computations, we extract unique combinations of
items, conditions, and words. (We don’t want to run our functions on the
entire dataset because there will be repetition across subjects, and
thus the model will run several times on identical words in identical
sentences):

df_stim <- df_jaeger14 |> distinct(item, cond, word, wordn)
df_stim |> print(n = 20)
#> # A tidytable: 704 × 4
#>     item cond  word       wordn
#>    <int> <chr> <chr>      <int>
#>  1     1 a     那個           1
#>  2     1 a     昨晚           2
#>  3     1 a     揍了服務生     3
#>  4     1 a     一頓           4
#>  5     1 a     的             5
#>  6     1 a     顧客           6
#>  7     1 a     聽說過         7
#>  8     1 a     老闆           8
#>  9     1 a     並且           9
#> 10     1 a     記得          10
#> 11     1 a     他。          11
#> 12     2 b     那輛           1
#> 13     2 b     下午           2
#> 14     2 b     摩托車追了     3
#> 15     2 b     很久           4
#> 16     2 b     的             5
#> 17     2 b     轎車           6
#> 18     2 b     發現了         7
#> 19     2 b     記者           8
#> 20     2 b     所以           9
#> # ℹ 684 more rows
…
Inspect the calculated surprisal values:

df_stim |> print(n = 20)
#> # A tidytable: 704 × 5
#>     item cond  word       wordn surprisal
#>    <int> <chr> <chr>      <int>     <dbl>
#>  1     1 a     那個           1     21.8 
#>  2     1 a     昨晚           2     19.8 
#>  3     1 a     揍了服務生     3     36.5 
#>  4     1 a     一頓           4      4.94
#>  5     1 a     的             5      2.38
#>  6     1 a     顧客           6     11.0 
#>  7     1 a     聽說過         7     17.6 
#>  8     1 a     老闆           8      8.84
#>  9     1 a     並且           9     12.8 
#> 10     1 a     記得          10      8.51
#> 11     1 a     他。          11     16.5 
#> 12     2 b     那輛           1     34.4 
#> 13     2 b     下午           2     15.2 
#> 14     2 b     摩托車追了     3     34.3 
#> 15     2 b     很久           4      5.64
#> 16     2 b     的             5      5.21
#> 17     2 b     轎車           6     15.4 
#> 18     2 b     發現了         7     13.8 
#> 19     2 b     記者           8     13.4 
#> 20     2 b     所以           9      9.72
#> # ℹ 684 more rows
…
