Using a GPT2 transformer model to get word predictability • pangoling
…
Then let’s examine which continuation GPT-2 predicts following a
specific context. Hugging Face
provide access to pre-trained models, including freely available
versions of different sizes of GPT-2. The function
causal_next_tokens_pred_tbl() will, by default, use the
smallest version of GPT-2, but
this can be modified with the argument model.

Let’s see what GPT-2 predicts following “The apple doesn’t fall far
from the”.

tic()
(df_pred <- causal_next_tokens_pred_tbl("The apple doesn't fall far from the"))
#> Processing using causal model 'gpt2/' ...
#> # A tidytable: 50,257 × 2
#>    token     pred
#>    <chr>    <dbl>
#>  1 Ġtree   -0.281
#>  2 Ġtrees  -3.60 
#>  3 Ġapple  -4.29 
#>  4 Ġtable  -4.50 
#>  5 Ġhead   -4.83 
#>  6 Ġmark   -4.86 
#>  7 Ġcake   -4.91 
#>  8 Ġground -5.08 
#>  9 Ġtruth  -5.31 
#> 10 Ġtop    -5.36 
#> # ℹ 50,247 more rows
…
(The pretrained models and tokenizers will be downloaded from https://huggingface.co/
the first time they are used.)

The most likely continuation is “tree”, which makes sense. The first
time a model is run, it will download some files that will be available
for subsequent runs. However, every time we start a new R session and we
run a model, it will take some time to store it in memory. Next runs in
the same session are much faster. We can also preload a model with
causal_preload().

tic()
(df_pred <- causal_next_tokens_pred_tbl("The apple doesn't fall far from the"))
#> Processing using causal model 'gpt2/' ...
#> # A tidytable: 50,257 × 2
#>    token     pred
#>    <chr>    <dbl>
#>  1 Ġtree   -0.281
#>  2 Ġtrees  -3.60 
#>  3 Ġapple  -4.29 
#>  4 Ġtable  -4.50 
#>  5 Ġhead   -4.83 
#>  6 Ġmark   -4.86 
#>  7 Ġcake   -4.91 
#>  8 Ġground -5.08 
#>  9 Ġtruth  -5.31 
#> 10 Ġtop    -5.36 
#> # ℹ 50,247 more rows
…
Because of approximation errors, this is not exactly one.

When doing tests, sshleifer/tiny-gpt2
is quite useful since it’s much faster because it’s a tiny model. But
notice that the predictions are quite bad.

causal_preload("sshleifer/tiny-gpt2")
#> Preloading causal model sshleifer/tiny-gpt2...
tic()
causal_next_tokens_pred_tbl("The apple doesn't fall far from the",
  model = "sshleifer/tiny-gpt2"
)
#> Processing using causal model 'sshleifer/tiny-gpt2/' ...
#> # A tidytable: 50,257 × 2
#>    token          pred
#>    <chr>         <dbl>
#>  1 Ġstairs       -10.7
#>  2 Ġvendors      -10.7
#>  3 Ġintermittent -10.7
#>  4 Ġhauled       -10.7
#>  5 ĠBrew         -10.7
#>  6 Rocket        -10.7
#>  7 dit           -10.7
#>  8 ĠHabit        -10.7
#>  9 ĠJr           -10.7
#> 10 ĠRh           -10.7
#> # ℹ 50,247 more rows
…
